Elpida/test_regression/output_files/dump.vcd
$date
	Sun Mar 26 15:09:34 2023
$end
$version
	Icarus Verilog
$end
$timescale
	1ps
$end
$scope module test $end
$var wire 3 ! r_addr [2:0] $end
$var wire 1 " outvalid $end
$var wire 16 # out [15:0] $end
$var reg 1 $ clk $end
$var reg 16 % in [15:0] $end
$var reg 1 & in_valid $end
$var reg 1 ' rst $end
$var reg 16 ( wdata [15:0] $end
$var reg 1 ) wvalid $end
$upscope $end
$enddefinitions $end
#0
$dumpvars
0)
bx (
1'
0&
bx %
0$
bx #
x"
bx !
$end
#1000
b0 !
1$
#2000
0$
#3000
b0 #
1$
#4000
0$
#5000
0"
1$
#6000
0$
#7000
1$
#8000
0$
#9000
1$
#10000
0$
b110011001100 %
b110011001100 (
1&
1)
0'
#11000
b1 !
1$
#12000
0$
b1110011001100110 %
b1110011001100110 (
#13000
b10 !
1$
#14000
0$
b10011001100110 %
b10011001100110 (
#15000
b11 !
1$
#16000
0$
b1100110011001100 %
b1100110011001100 (
#17000
bx #
b100 !
1$
#18000
0$
b100000000000000 %
b100000000000000 (
#19000
b101 !
1$
#20000
0$
#21000
b110 !
1$
#22000
0$
#23000
b111 !
1$
#24000
0$
#25000
b0 !
1$
#26000
0$
#27000
b1 !
1$
#28000
0$
#29000
b10 !
1$
#30000
0$
#31000
b11 !
1$
#32000
0$
#33000
b100 !
1$
#34000
0$
#35000
b101 !
1$
#36000
0$
#37000
b110 !
1$
#38000
0$
#39000
b111 !
1$
#40000
0$
#41000
b0 !
1$
#42000
0$
#43000
b1 !
1$
#44000
0$
#45000
b10 !
1$
#46000
0$
#47000
b11 !
1$
#48000
0$
#49000
b100 !
1$
#50000
0$
#51000
b101 !
1$
#52000
0$
#53000
b110 !
1$
#54000
0$
#55000
b111 !
1$
#56000
0$
#57000
b0 !
1$
#58000
0$
#59000
b1 !
1$
#60000
0$
#61000
b10 !
1$
#62000
0$
#63000
b11 !
1$
#64000
0$
#65000
b100 !
1$
#66000
0$
#67000
b101 !
1$
#68000
0$
#69000
b110 !
1$
#70000
0$
#71000
b111 !
1$
#72000
0$
#73000
b0 !
1$
#74000
0$
#75000
b1 !
1$
#76000
0$
#77000
b10 !
1$
#78000
0$
#79000
b11 !
1$
#80000
0$
#81000
b100 !
1$
#82000
0$
#83000
b101 !
1$
#84000
0$
#85000
b110 !
1$
#86000
0$
#87000
b111 !
1$
#88000
0$
#89000
b0 !
1$
#90000
0$
#91000
b1 !
1$
#92000
0$
#93000
b10 !
1$
#94000
0$
#95000
b11 !
1$
#96000
0$
#97000
b100 !
1$
#98000
0$
#99000
b101 !
1$
#100000
0$
#101000
b110 !
1$
#102000
0$
#103000
b111 !
1$
#104000
0$
#105000
b0 !
1$
#106000
0$
#107000
b1 !
1$
#108000
0$
#109000
b10 !
1$
#110000
0$
#111000
b11 !
1$
#112000
0$
#113000
b100 !
1$
#114000
0$
#115000
b101 !
1$
#116000
0$
#117000
b110 !
1$
#118000
0$
#119000
b111 !
1$
#120000
0$
#121000
b0 !
1$
#122000
0$
#123000
b1 !
1$
#124000
0$
#125000
b10 !
1$
#126000
0$
#127000
b11 !
1$
#128000
0$
#129000
b100 !
1$
#130000
0$
#131000
b101 !
1$
#132000
0$
#133000
b110 !
1$
#134000
0$
#135000
b111 !
1$
#136000
0$
#137000
b0 !
1$
#138000
0$
#139000
b1 !
1$
#140000
0$
#141000
b10 !
1$
#142000
0$
#143000
b11 !
1$
#144000
0$
#145000
b100 !
1$
#146000
0$
#147000
b101 !
1$
#148000
0$
#149000
b110 !
1$
#150000
0$
#151000
b111 !
1$
#152000
0$
#153000
b0 !
1$
#154000
0$
#155000
b1 !
1$
#156000
0$
#157000
b10 !
1$
#158000
0$
#159000
b11 !
1$
#160000
0$
#161000
b100 !
1$
#162000
0$
#163000
b101 !
1$
#164000
0$
#165000
b110 !
1$
#166000
0$
#167000
b111 !
1$
#168000
0$
#169000
b0 !
1$
#170000
0$
#171000
b1 !
1$
#172000
0$
#173000
b10 !
1$
#174000
0$
#175000
b11 !
1$
#176000
0$
#177000
b100 !
1$
#178000
0$
#179000
b101 !
1$
#180000
0$
#181000
b110 !
1$
#182000
0$
#183000
b111 !
1$
#184000
0$
#185000
b0 !
1$
#186000
0$
#187000
b1 !
1$
#188000
0$
#189000
b10 !
1$
#190000
0$
#191000
b11 !
1$
#192000
0$
#193000
b100 !
1$
#194000
0$
#195000
b101 !
1$
#196000
0$
#197000
b110 !
1$
#198000
0$
#199000
b111 !
1$
#200000
0$
#201000
b0 !
1$
#202000
0$
#203000
b1 !
1$
#204000
0$
#205000
b10 !
1$
#206000
0$
#207000
b11 !
1$
#208000
0$
#209000
b100 !
1$
#210000
0$
#211000
b101 !
1$
#212000
0$
#213000
b110 !
1$
#214000
0$
#215000
b111 !
1$
#216000
0$
#217000
b0 !
1$
#218000
0$
#219000
b1 !
1$
#220000
0$
#221000
b10 !
1$
#222000
0$
#223000
b11 !
1$
#224000
0$
#225000
b100 !
1$
#226000
0$
#227000
b101 !
1$
#228000
0$
#229000
b110 !
1$
#230000
0$
#231000
b111 !
1$
#232000
0$
#233000
b0 !
1$
#234000
0$
#235000
b1 !
1$
#236000
0$
#237000
b10 !
1$
#238000
0$
#239000
b11 !
1$
